%YAML 1.1
%TAG !u! tag:unity3d.com,2011:
--- !u!114 &11400000
MonoBehaviour:
  m_ObjectHideFlags: 0
  m_PrefabParentObject: {fileID: 0}
  m_PrefabInternal: {fileID: 0}
  m_GameObject: {fileID: 0}
  m_Enabled: 1
  m_EditorHideFlags: 0
  m_Script: {fileID: 11500000, guid: ae4bfc5f0f8e0514f8c8d75477738745, type: 3}
  m_Name: QuizSettings
  m_EditorClassIdentifier: 
  MinWordLength: 5
  NumTries: 5
